\relax 
\@writefile{toc}{\contentsline {section}{\numberline {1}Préambule}{2}\protected@file@percent }
\@writefile{toc}{\contentsline {section}{\numberline {2}Présentation du programme}{2}\protected@file@percent }
\@writefile{toc}{\contentsline {subsection}{\numberline {2.1}Présentation générale}{2}\protected@file@percent }
\@writefile{toc}{\contentsline {subsection}{\numberline {2.2}Les structures utilisés}{3}\protected@file@percent }
\@writefile{toc}{\contentsline {subsection}{\numberline {2.3}Le chargement et la taille d'une grille}{3}\protected@file@percent }
\@writefile{toc}{\contentsline {subsection}{\numberline {2.4}Mélange et déplacements}{4}\protected@file@percent }
\@writefile{toc}{\contentsline {subsection}{\numberline {2.5}L'affichage}{5}\protected@file@percent }
\@writefile{toc}{\contentsline {subsection}{\numberline {2.6}Interface homme-machine et gestion des actions}{5}\protected@file@percent }
